^D:\PRIALL\PRISM_MAKE_WL\PRISM_MAKE_WL\FORM\FRMMAIN.RESX|D:\PRIALL\PRISM_MAKE_WL\PRISM_MAKE_WL\MY PROJECT\RESOURCES.RESX
D:\PRIALL\PRISM_MAKE_WL\PRISM_MAKE_WL\OBJ\X86\DEBUG\PRISM_MAKE_WL.FRMMAIN.RESOURCES
D:\PRIALL\PRISM_MAKE_WL\PRISM_MAKE_WL\OBJ\X86\DEBUG\PRISM_MAKE_WL.RESOURCES.RESOURCES
